^C:\USERS\WHITE\SOURCE\REPOS\JRC.SIMPLECALCULATOR\JRC.SIMPLECALCULATOR\DEBUG\MAIN.OBJ
D:\WINDOWS KITS\10\LIB\10.0.19041.0\UM\X86\KERNEL32.LIB
D:\WINDOWS KITS\10\LIB\10.0.19041.0\UM\X86\USER32.LIB
D:\WINDOWS KITS\10\LIB\10.0.19041.0\UM\X86\GDI32.LIB
D:\WINDOWS KITS\10\LIB\10.0.19041.0\UM\X86\WINSPOOL.LIB
D:\WINDOWS KITS\10\LIB\10.0.19041.0\UM\X86\COMDLG32.LIB
D:\WINDOWS KITS\10\LIB\10.0.19041.0\UM\X86\ADVAPI32.LIB
D:\WINDOWS KITS\10\LIB\10.0.19041.0\UM\X86\SHELL32.LIB
D:\WINDOWS KITS\10\LIB\10.0.19041.0\UM\X86\OLE32.LIB
D:\WINDOWS KITS\10\LIB\10.0.19041.0\UM\X86\OLEAUT32.LIB
D:\WINDOWS KITS\10\LIB\10.0.19041.0\UM\X86\UUID.LIB
D:\WINDOWS KITS\10\LIB\10.0.19041.0\UM\X86\ODBC32.LIB
D:\WINDOWS KITS\10\LIB\10.0.19041.0\UM\X86\ODBCCP32.LIB
C:\USERS\WHITE\SOURCE\REPOS\JRC.SIMPLECALCULATOR\JRC.SIMPLECALCULATOR\DEBUG\MAIN.OBJ
C:\USERS\WHITE\SOURCE\REPOS\JRC.SIMPLECALCULATOR\JRC.SIMPLECALCULATOR\DEBUG\JRC.SIMPLECALCULATOR.ILK
C:\WINDOWS\SYSTEM32\TZRES.DLL
C:\WINDOWS\GLOBALIZATION\SORTING\SORTDEFAULT.NLS
D:\PROGRAM FILES\VISUAL STUDIO\VC\TOOLS\MSVC\14.29.30133\LIB\X86\MSVCPRTD.LIB
D:\PROGRAM FILES\VISUAL STUDIO\VC\TOOLS\MSVC\14.29.30133\LIB\X86\MSVCRTD.LIB
D:\PROGRAM FILES\VISUAL STUDIO\VC\TOOLS\MSVC\14.29.30133\LIB\X86\OLDNAMES.LIB
D:\PROGRAM FILES\VISUAL STUDIO\VC\TOOLS\MSVC\14.29.30133\LIB\X86\VCRUNTIMED.LIB
D:\WINDOWS KITS\10\LIB\10.0.19041.0\UCRT\X86\UCRTD.LIB
D:\PROGRAM FILES\VISUAL STUDIO\VC\TOOLS\MSVC\14.29.30133\BIN\HOSTX86\X86\MSPDBSRV.EXE
